time,price
0.002830189,0.059355766
0.016037736,0.117985067
0.016981132,0.180805418
0.030188679,0.189969478
0.043396226,0.175069367
0.05754717,0.186893351
0.073584906,0.170614721
0.086792453,0.233254717
0.102830189,0.283821007
0.116037736,0.247530522
0.128301887,0.247350166
0.140566038,0.259201897
0.154716981,0.244287912
0.167924528,0.270831652
0.185849057,0.287947735
0.199056604,0.307806982
0.210377358,0.311651196
0.225471698,0.288701947
0.238679245,0.272464938
0.253773585,0.245504994
0.266981132,0.195845525
0.280188679,0.239768944
0.295283019,0.290349107
0.306603774,0.304888508
0.322641509,0.326043033
0.333962264,0.340582434
0.35,0.379116638
0.363207547,0.388280698
0.378301887,0.337256584
0.391509434,0.295618505
0.406603774,0.304754818
0.418867925,0.355376602
0.431132075,0.345837958
0.446226415,0.340268389
0.461320755,0.356089194
0.473584906,0.295748411
0.490566038,0.300846282
0.502830189,0.395585713
0.516981132,0.436821461
0.532075472,0.415209111
0.546226415,0.39762133
0.555660377,0.405503985
0.571698113,0.488155837
0.576415094,0.615091817
0.586792453,0.71386969
0.599056604,0.827325699
0.613207547,0.789684442
0.627358491,0.717283826
0.641509434,0.735792301
0.654716981,0.735598073
0.669811321,0.687247755
0.685849057,0.644231157
0.697169811,0.582567349
0.712264151,0.570313288
0.723584906,0.52602916
0.738679245,0.503079911
0.752830189,0.628540258
0.76509434,0.602958834
0.781132075,0.592027797
0.794339623,0.573116991
0.808490566,0.580930279
0.821698113,0.662286853
0.836792453,0.750300172
0.848113208,0.735427807
0.864150943,0.693748108
0.876415094,0.682872566
0.889622642,0.681341439
0.889622642,0.681341439
0.904716981,0.659729089
0.918867925,0.63144612
0.930188679,0.666038997
0.947169811,0.612313339
0.960377358,0.569338361
0.974528302,0.557098174
0.987735849,0.590326405
1.000943396,0.630239128
1.016037736,0.89071234
1.026415094,0.838420694
1.04245283,0.775350621
1.05754717,0.751064474